DATA 606 Data Project Proposal
…
merge_df %>% group_by(Mouse_Id, Timepoint)

## # A tibble: 1,893 x 8
## # Groups:   Mouse_Id, Timepoint [1,888]
##    Mouse_Id Drug_Regimen Sex    Age_months Weight_g Timepoint Tumor_Volume_mm3
##    <chr>    <chr>        <chr>       <int>    <int>     <int>            <dbl>
##  1 a203     Infubinol    Female         20       23        20             55.2
##  2 a203     Infubinol    Female         20       23        25             56.8
##  3 a203     Infubinol    Female         20       23        15             52.8
##  4 a203     Infubinol    Female         20       23        10             51.9
##  5 a203     Infubinol    Female         20       23        35             61.9
##  6 a203     Infubinol    Female         20       23         0             45  
##  7 a203     Infubinol    Female         20       23        30             59.5
##  8 a203     Infubinol    Female         20       23         5             48.5
##  9 a203     Infubinol    Female         20       23        45             68.0
## 10 a203     Infubinol    Female         20       23        40             63.6
## # ... with 1,883 more rows, and 1 more variable: Metastatic_Sites <int>
…
