DATA 606 Data Project Proposal
…
Grouping by Drug.Regimen

metadata_df %>%
  group_by(Drug.Regimen) 

## # A tibble: 249 x 5
## # Groups:   Drug.Regimen [10]
##    Mouse.ID Drug.Regimen Sex    Age_months Weight..g.
##    <chr>    <chr>        <chr>       <int>      <int>
##  1 k403     Ramicane     Male           21         16
##  2 s185     Capomulin    Female          3         17
##  3 x401     Capomulin    Female         16         15
##  4 m601     Capomulin    Male           22         17
##  5 g791     Ramicane     Male           11         16
##  6 s508     Ramicane     Male            1         17
##  7 f966     Capomulin    Male           16         17
##  8 m546     Ramicane     Male           18         16
##  9 z578     Ramicane     Male           11         16
## 10 j913     Ramicane     Female          4         17
## # ... with 239 more rows
…
merge_df %>% group_by(Mouse_Id, Timepoint)

## # A tibble: 1,893 x 8
## # Groups:   Mouse_Id, Timepoint [1,888]
##    Mouse_Id Drug_Regimen Sex    Age_months Weight_g Timepoint Tumor_Volume_mm3
##    <chr>    <chr>        <chr>       <int>    <int>     <int>            <dbl>
##  1 a203     Infubinol    Female         20       23        20             55.2
##  2 a203     Infubinol    Female         20       23        25             56.8
##  3 a203     Infubinol    Female         20       23        15             52.8
##  4 a203     Infubinol    Female         20       23        10             51.9
##  5 a203     Infubinol    Female         20       23        35             61.9
##  6 a203     Infubinol    Female         20       23         0             45  
##  7 a203     Infubinol    Female         20       23        30             59.5
##  8 a203     Infubinol    Female         20       23         5             48.5
##  9 a203     Infubinol    Female         20       23        45             68.0
## 10 a203     Infubinol    Female         20       23        40             63.6
## # ... with 1,883 more rows, and 1 more variable: Metastatic_Sites <int>
…
df1 <- group_by(df1, Drug_Regimen)
df1

## # A tibble: 1,893 x 2
## # Groups:   Drug_Regimen [10]
##    Drug_Regimen Tumor_Volume_mm3
##    <chr>                   <dbl>
##  1 Infubinol                55.2
##  2 Infubinol                56.8
##  3 Infubinol                52.8
##  4 Infubinol                51.9
##  5 Infubinol                61.9
##  6 Infubinol                45  
##  7 Infubinol                59.5
##  8 Infubinol                48.5
##  9 Infubinol                68.0
## 10 Infubinol                63.6
## # ... with 1,883 more rows
…
capomulin_df <- group_by(capomulin_df, Timepoint)

capomulin_df

## # A tibble: 230 x 8
## # Groups:   Timepoint [10]
##    Mouse_Id Drug_Regimen Sex    Age_months Weight_g Timepoint Tumor_Volume_mm3
##    <chr>    <chr>        <chr>       <int>    <int>     <int>            <dbl>
##  1 b128     Capomulin    Female          9       22         5             45.7
##  2 b128     Capomulin    Female          9       22        25             43.3
##  3 b128     Capomulin    Female          9       22        35             38.0
##  4 b128     Capomulin    Female          9       22        10             43.3
##  5 b128     Capomulin    Female          9       22         0             45  
##  6 b128     Capomulin    Female          9       22        40             38.4
##  7 b128     Capomulin    Female          9       22        20             42.7
##  8 b128     Capomulin    Female          9       22        45             39.0
##  9 b128     Capomulin    Female          9       22        15             43.8
## 10 b128     Capomulin    Female          9       22        30             40.6
## # ... with 220 more rows, and 1 more variable: Metastatic_Sites <int>
